<svg xmlns="http://www.w3.org/2000/svg" width="207" height="176" viewBox="0 0 207 176">
  <metadata><?xpacket begin="﻿" id="W5M0MpCehiHzreSzNTczkc9d"?>
<x:xmpmeta xmlns:x="adobe:ns:meta/" x:xmptk="Adobe XMP Core 5.6-c138 79.159824, 2016/09/14-01:09:01        ">
   <rdf:RDF xmlns:rdf="http://www.w3.org/1999/02/22-rdf-syntax-ns#">
      <rdf:Description rdf:about=""/>
   </rdf:RDF>
</x:xmpmeta>
                                                                                                    
                                                                                                    
                                                                                                    
                                                                                                    
                                                                                                    
                                                                                                    
                                                                                                    
                                                                                                    
                                                                                                    
                                                                                                    
                                                                                                    
                                                                                                    
                                                                                                    
                                                                                                    
                                                                                                    
                                                                                                    
                                                                                                    
                                                                                                    
                                                                                                    
                                                                                                    
                           
<?xpacket end="w"?></metadata>
<defs>
    <style>
      .cls-1 {
        fill: #fff;
        fill-rule: evenodd;
        opacity: 0.02;
      }
    </style>
  </defs>
  <rect width="100%" height="100%" style="fill: #2E354A;"></rect>
  <path id="white_symb" class="cls-1" d="M579.24,97.532a6.094,6.094,0,0,0-8.383-1.889,6.032,6.032,0,0,0-1.9,8.345,102.6,102.6,0,0,1-37.925,145.08l-10.19-46.038a57.311,57.311,0,0,0,13.86-64.433,6.074,6.074,0,0,0-11.2,4.713,45.26,45.26,0,0,1-13.217,52.832,6.029,6.029,0,0,0-2.093,5.989L520.84,259.25a6.089,6.089,0,0,0,8.455,4.2A114.7,114.7,0,0,0,579.24,97.532ZM452.7,196.142a45.26,45.26,0,0,1-13.178-52.924,6.074,6.074,0,0,0-11.186-4.738,57.3,57.3,0,0,0,13.807,64.547L431.9,249.039a102.6,102.6,0,0,1-37.89-145.02,6.033,6.033,0,0,0-1.9-8.344,6.1,6.1,0,0,0-8.385,1.891,114.7,114.7,0,0,0,49.9,165.858,6.084,6.084,0,0,0,8.457-4.2l12.7-57.09A6.032,6.032,0,0,0,452.7,196.142Zm28.334-45.406a8.367,8.367,0,1,0,8.406,8.367A8.386,8.386,0,0,0,481.035,150.736Zm0.516-48.614c-14.062,0-27.519,5.392-38.914,15.593a6.063,6.063,0,0,0,8.131,9c6.365-5.7,16.872-12.49,30.783-12.49,10.88,0,21.808,4.417,30.77,12.437a6.1,6.1,0,0,0,8.586-.454,6.029,6.029,0,0,0-.457-8.543C509.251,107.641,495.437,102.122,481.551,102.122Zm0-29.111c-21.919,0-42.248,8.521-58.79,24.643a6.064,6.064,0,0,0,8.507,8.644c14.222-13.861,31.609-21.187,50.283-21.187,19.026,0,35.939,7.109,50.273,21.13a6.1,6.1,0,0,0,8.6-.073,6.03,6.03,0,0,0-.074-8.555C523.9,81.518,503.566,73.011,481.553,73.011ZM481.5,43.846A115.266,115.266,0,0,0,401.683,75.7a6.064,6.064,0,0,0,8.4,8.744,103.7,103.7,0,0,1,142.712-.1,6.1,6.1,0,0,0,8.594-.2,6.029,6.029,0,0,0-.205-8.553A115.283,115.283,0,0,0,481.5,43.846ZM582.2,55.619a140.28,140.28,0,0,0-201.493.078,6.065,6.065,0,0,0,8.763,8.387,128.084,128.084,0,0,1,183.974-.072,6.1,6.1,0,0,0,8.6.16A6.027,6.027,0,0,0,582.2,55.619Z" transform="translate(-366 -13)"/>
</svg>
